…
> 
> ### Name: clear_labels
> ### Title: Clear variable labels from a data frame
> ### Aliases: clear_labels
> 
> ### ** Examples
> 
> # Set a few variable labels for ctDNA
> data("ctDNA")
> ctDNA <- ctDNA |> set_var_labels(
+    ctdna_status="detectable ctDNA",
+   cohort="A cohort label")
> # Clear all variable data frames and check
> clear_labels(ctDNA)
# A tibble: 270 × 5
   id        cohort ctdna_status                          time size_change
   <chr>     <fct>  <fct>                                <dbl>       <dbl>
 1 INS-A-002 A      No clearance, increase from baseline  8.12         5.7
 2 INS-A-002 A      No clearance, increase from baseline 12.4         NA  
 3 INS-A-003 A      No clearance, increase from baseline  6.12        41.7
 4 INS-A-007 A      No clearance, decrease from baseline  8.83       -45.5
 5 INS-A-007 A      No clearance, decrease from baseline 16.8        -72.7
 6 INS-A-007 A      No clearance, decrease from baseline 25.8        -63.6
 7 INS-A-007 A      No clearance, decrease from baseline 37.0        -54.5
 8 INS-A-007 A      No clearance, decrease from baseline 43.3        -54.5
 9 INS-A-007 A      No clearance, decrease from baseline 49.0       -100  
10 INS-A-007 A      No clearance, decrease from baseline 60.0       -100  
# ℹ 260 more rows
…
> flush(stderr()); flush(stdout())
> 
> ### Name: set_labels
> ### Title: Set variable labels
> ### Aliases: set_labels
> 
> ### ** Examples
> 
> data("ctDNA")
> # create data frame with labels
> lbls <- data.frame(c1=c('cohort','size_change'),
+ c2=c('Cancer cohort','Change in tumour size'))
> # set labels and return labelled data frame
> set_labels(ctDNA,lbls)
# A tibble: 270 × 5
   id        cohort ctdna_status                          time size_change
   <chr>     <fct>  <fct>                                <dbl>       <dbl>
 1 INS-A-002 A      No clearance, increase from baseline  8.12         5.7
 2 INS-A-002 A      No clearance, increase from baseline 12.4         NA  
 3 INS-A-003 A      No clearance, increase from baseline  6.12        41.7
 4 INS-A-007 A      No clearance, decrease from baseline  8.83       -45.5
 5 INS-A-007 A      No clearance, decrease from baseline 16.8        -72.7
 6 INS-A-007 A      No clearance, decrease from baseline 25.8        -63.6
 7 INS-A-007 A      No clearance, decrease from baseline 37.0        -54.5
 8 INS-A-007 A      No clearance, decrease from baseline 43.3        -54.5
 9 INS-A-007 A      No clearance, decrease from baseline 49.0       -100  
10 INS-A-007 A      No clearance, decrease from baseline 60.0       -100  
# ℹ 260 more rows
…
> flush(stderr()); flush(stdout())
> 
> ### Name: set_var_labels
> ### Title: Set variable labels
> ### Aliases: set_var_labels
> 
> ### ** Examples
> 
> # set labels using name-label pairs
> # and return labelled data frame
> data("ctDNA")
> ctDNA |> set_var_labels(
+    ctdna_status="detectable ctDNA",
+   cohort="A cohort label")
# A tibble: 270 × 5
   id        cohort ctdna_status                          time size_change
   <chr>     <fct>  <fct>                                <dbl>       <dbl>
 1 INS-A-002 A      No clearance, increase from baseline  8.12         5.7
 2 INS-A-002 A      No clearance, increase from baseline 12.4         NA  
 3 INS-A-003 A      No clearance, increase from baseline  6.12        41.7
 4 INS-A-007 A      No clearance, decrease from baseline  8.83       -45.5
 5 INS-A-007 A      No clearance, decrease from baseline 16.8        -72.7
 6 INS-A-007 A      No clearance, decrease from baseline 25.8        -63.6
 7 INS-A-007 A      No clearance, decrease from baseline 37.0        -54.5
 8 INS-A-007 A      No clearance, decrease from baseline 43.3        -54.5
 9 INS-A-007 A      No clearance, decrease from baseline 49.0       -100  
10 INS-A-007 A      No clearance, decrease from baseline 60.0       -100  
# ℹ 260 more rows
…
